-9.063073992729187012e-02
2.407785877585411072e-02
5.217729508876800537e-02
-5.247171036899089813e-03
4.316679015755653381e-02
-1.488239318132400513e-01
-3.220009058713912964e-02
-1.267256587743759155e-01
8.657329529523849487e-02
-9.352328628301620483e-02
1.917709112167358398e-01
-8.308649808168411255e-02
-1.186456084251403809e-01
-1.663397997617721558e-01
2.163870073854923248e-02
1.374239027500152588e-01
-1.697328388690948486e-01
-8.046182990074157715e-02
-7.585375756025314331e-02
1.337342429906129837e-02
6.662964820861816406e-02
2.739068493247032166e-02
2.702065370976924896e-02
4.813343659043312073e-02
-2.672438323497772217e-02
-3.173718750476837158e-01
-1.596833020448684692e-01
-9.155062586069107056e-02
2.150345593690872192e-02
-4.245414957404136658e-02
-9.060848504304885864e-02
8.307290077209472656e-02
-2.044336795806884766e-01
-1.077239438891410828e-01
1.220565568655729294e-02
9.955319017171859741e-02
6.136457435786724091e-03
-4.211346805095672607e-02
1.560375839471817017e-01
1.943846419453620911e-02
-1.847002357244491577e-01
-1.738606952130794525e-04
3.844049572944641113e-02
2.291754931211471558e-01
1.603033393621444702e-01
9.083375334739685059e-02
-3.235411643981933594e-02
-1.142253577709197998e-01
1.220061555504798889e-01
-1.538396030664443970e-01
7.388176023960113525e-02
1.296438127756118774e-01
9.801696985960006714e-02
1.089875847101211548e-01
3.370776772499084473e-02
-1.009123548865318298e-01
1.010345667600631714e-01
5.251612514257431030e-03
-1.304154247045516968e-01
-2.620864287018775940e-02
5.218137055635452271e-02
-8.036503940820693970e-02
-2.441730350255966187e-03
2.186015248298645020e-03
2.114082723855972290e-01
7.499486207962036133e-02
-4.194395244121551514e-02
-1.592499017715454102e-01
1.075709089636802673e-01
-1.298459768295288086e-01
-7.017016410827636719e-02
9.578806161880493164e-02
-1.181259676814079285e-01
-1.469728946685791016e-01
-2.798518836498260498e-01
5.641837418079376221e-02
3.472253680229187012e-01
8.064921200275421143e-02
-2.110269963741302490e-01
6.205781921744346619e-02
-1.144102290272712708e-01
-7.265847921371459961e-02
1.920574754476547241e-01
1.270057559013366699e-01
5.087565630674362183e-03
5.737856030464172363e-02
-1.226092129945755005e-01
-2.772152423858642578e-03
2.094384580850601196e-01
-8.684097975492477417e-02
-2.616704814136028290e-02
1.852993071079254150e-01
1.139635220170021057e-03
8.579629659652709961e-02
3.987740725278854370e-02
-2.069853991270065308e-02
-1.606917567551136017e-02
7.907289266586303711e-02
-1.292126178741455078e-01
-2.507402002811431885e-02
1.703003346920013428e-01
1.630335673689842224e-02
-5.852256342768669128e-02
1.064241603016853333e-01
-1.335575580596923828e-01
1.051361188292503357e-01
4.826302453875541687e-02
-1.243801694363355637e-02
5.931505933403968811e-02
-4.651788994669914246e-02
-1.164754405617713928e-01
-9.690303355455398560e-02
6.959221512079238892e-02
-2.029720544815063477e-01
2.021213769912719727e-01
1.356386542320251465e-01
-7.025804836302995682e-03
1.017023548483848572e-01
5.783582478761672974e-02
1.464636921882629395e-01
-3.091144189238548279e-02
-6.114763766527175903e-02
-1.923465281724929810e-01
-1.782133802771568298e-02
1.853099614381790161e-01
9.419104456901550293e-02
2.398598194122314453e-02
-2.014664933085441589e-02
