-7.129177451133728027e-02
9.556110948324203491e-03
4.417951032519340515e-02
-1.061478406190872192e-01
-1.215519309043884277e-01
-5.819577723741531372e-02
-7.840455323457717896e-02
-1.853309869766235352e-01
1.367448866367340088e-01
-1.863237023353576660e-01
1.655625998973846436e-01
-6.917452812194824219e-02
-1.420570015907287598e-01
-1.099291667342185974e-01
-6.262992322444915771e-02
3.016918301582336426e-01
-1.958525627851486206e-01
-1.934055536985397339e-01
-3.015230037271976471e-02
-1.858062297105789185e-02
-9.549314156174659729e-03
2.937344834208488464e-03
2.045163698494434357e-02
9.770738333463668823e-02
-7.806434482336044312e-02
-3.662998974323272705e-01
-9.779003262519836426e-02
-9.386019408702850342e-02
-5.987792462110519409e-02
2.723721554502844810e-03
-1.846886239945888519e-03
1.079448387026786804e-01
-1.709709018468856812e-01
1.331637613475322723e-02
4.827078431844711304e-02
1.046202555298805237e-01
-3.446489572525024414e-02
-7.773046195507049561e-02
1.702319383621215820e-01
3.515793383121490479e-02
-3.060721755027770996e-01
3.866060823202133179e-02
1.130019500851631165e-01
1.985470056533813477e-01
2.500032186508178711e-01
-1.722328923642635345e-02
3.198635578155517578e-02
-8.899676054716110229e-02
1.487107127904891968e-01
-2.049579173326492310e-01
-2.046884037554264069e-02
6.861914694309234619e-02
8.746388554573059082e-02
3.110872954130172729e-02
3.657679632306098938e-02
-8.344436436891555786e-02
3.845990076661109924e-02
1.368657946586608887e-01
-1.837103962898254395e-01
-9.129227139055728912e-03
1.055664122104644775e-01
-1.223160922527313232e-01
-1.576223410665988922e-02
-7.479938119649887085e-02
2.015841156244277954e-01
1.202909350395202637e-01
-1.452242732048034668e-01
-1.574981361627578735e-01
1.014555096626281738e-01
-2.233763784170150757e-01
-7.506249845027923584e-02
4.526451230049133301e-02
-1.208897382020950317e-01
-1.691590994596481323e-01
-3.350152671337127686e-01
-2.524869143962860107e-02
3.668534159660339355e-01
1.630774289369583130e-01
-1.634965091943740845e-01
-1.249975152313709259e-02
5.436121299862861633e-02
2.974205464124679565e-02
1.168174147605895996e-01
1.913748532533645630e-01
1.272725313901901245e-02
-3.149342909455299377e-02
-5.585265532135963440e-02
-8.209764212369918823e-02
1.937281787395477295e-01
-2.017031237483024597e-02
-5.270168185234069824e-05
2.208150774240493774e-01
-4.865565896034240723e-02
4.180794209241867065e-02
-3.406442701816558838e-02
3.556664660573005676e-02
-9.366660565137863159e-02
2.887039072811603546e-02
-1.106592714786529541e-01
-1.239632442593574524e-02
-1.021042168140411377e-01
1.674171537160873413e-02
2.462550066411495209e-02
7.792849838733673096e-02
-1.079085990786552429e-01
1.349179297685623169e-01
-9.593158960342407227e-02
1.670772768557071686e-02
-3.683137148618698120e-02
5.496453493833541870e-02
-5.706205591559410095e-02
-6.712344288825988770e-02
8.280863612890243530e-02
-1.462153494358062744e-01
1.215020269155502319e-01
1.852686703205108643e-01
1.610472798347473145e-02
1.141861677169799805e-01
1.142935380339622498e-01
1.069080457091331482e-01
-7.533270120620727539e-02
-2.480109408497810364e-02
-1.699925363063812256e-01
-3.531813248991966248e-02
8.882287889719009399e-02
-6.864211708307266235e-02
1.226253286004066467e-01
-2.219955250620841980e-02
