-1.290266364812850952e-01
1.376654505729675293e-01
1.099582016468048096e-01
-9.796475060284137726e-03
-2.074665389955043793e-02
-9.523572027683258057e-02
4.699547588825225830e-02
-6.543972343206405640e-02
1.397174000740051270e-01
-8.608490228652954102e-02
2.532770931720733643e-01
-1.518996246159076691e-02
-2.077059447765350342e-01
-5.866106599569320679e-02
4.963373020291328430e-02
1.763610988855361938e-01
-2.542188763618469238e-01
-2.051181048154830933e-01
7.166250608861446381e-03
-7.538846880197525024e-02
4.644857347011566162e-02
-6.559571623802185059e-02
3.425437491387128830e-03
5.571161210536956787e-02
-6.670457124710083008e-02
-2.729580700397491455e-01
-1.121065840125083923e-01
-9.492646902799606323e-02
7.928527891635894775e-02
-2.842670679092407227e-02
-2.532196789979934692e-02
3.674247860908508301e-02
-2.377663403749465942e-01
-7.371610030531883240e-03
-3.703233972191810608e-02
2.821896411478519440e-02
9.472818113863468170e-03
-4.340422526001930237e-02
2.087187021970748901e-01
1.978291571140289307e-02
-1.610585004091262817e-01
-2.628089115023612976e-02
-1.837317645549774170e-02
2.674403190612792969e-01
1.383984088897705078e-01
2.160512655973434448e-02
8.668088354170322418e-03
-4.621263965964317322e-02
2.487174235284328461e-02
-1.596385538578033447e-01
3.565359860658645630e-02
1.671872884035110474e-01
1.631345152854919434e-01
8.215197175741195679e-02
-9.887946397066116333e-02
-1.972166299819946289e-01
3.049535304307937622e-02
1.249131932854652405e-02
-1.488342136144638062e-01
6.596475839614868164e-02
7.435502856969833374e-02
-1.560753583908081055e-01
-3.442645817995071411e-02
-3.954860195517539978e-02
3.264884948730468750e-01
6.681800633668899536e-02
-1.152964681386947632e-01
-1.834519803524017334e-01
1.664907485246658325e-01
-1.037110090255737305e-01
-6.666794419288635254e-02
1.065569669008255005e-01
-1.723536700010299683e-01
-1.306011974811553955e-01
-2.919338941574096680e-01
8.593367040157318115e-02
3.177391290664672852e-01
3.517854586243629456e-02
-1.636938154697418213e-01
3.477479889988899231e-02
-1.515363454818725586e-01
3.456077352166175842e-02
3.927025198936462402e-02
1.637115478515625000e-01
-1.047107875347137451e-01
5.453466251492500305e-02
-1.609258353710174561e-01
9.970425628125667572e-03
1.911871284246444702e-01
-7.152077555656433105e-02
-1.024703904986381531e-01
1.957847923040390015e-01
-2.404033020138740540e-02
9.104485064744949341e-02
-5.999678745865821838e-03
-1.206643134355545044e-02
4.547995328903198242e-02
-4.917690530419349670e-03
-1.020121797919273376e-01
-1.638658717274665833e-02
2.582845836877822876e-02
-8.508193492889404297e-02
-9.743789583444595337e-02
1.288422048091888428e-01
-1.611975133419036865e-01
1.133033819496631622e-02
6.361268460750579834e-03
2.263708598911762238e-02
-5.281841754913330078e-02
5.332770198583602905e-02
-1.432921886444091797e-01
-1.335987448692321777e-01
1.063963770866394043e-01
-2.701039910316467285e-01
2.202001512050628662e-01
2.669700086116790771e-01
2.995422296226024628e-02
8.087296783924102783e-02
7.240944355726242065e-02
1.040633767843246460e-01
-3.919989988207817078e-02
-6.001960858702659607e-02
-1.679291576147079468e-01
3.343493491411209106e-02
1.362042278051376343e-01
8.597353473305702209e-03
4.622245207428932190e-02
5.187274515628814697e-02
