-9.366451948881149292e-02
6.784784048795700073e-02
4.472660273313522339e-02
-9.144810587167739868e-02
-1.811601668596267700e-01
-9.999769181013107300e-02
-5.122155323624610901e-02
-1.215778812766075134e-01
1.299631148576736450e-01
-1.144201308488845825e-01
1.823322921991348267e-01
-1.220998391509056091e-01
-1.983452588319778442e-01
-9.517732262611389160e-02
-5.272573977708816528e-02
2.592313289642333984e-01
-2.599868476390838623e-01
-1.446112692356109619e-01
-3.137871623039245605e-03
-3.694950137287378311e-03
3.752298653125762939e-02
-2.516657300293445587e-02
5.831176042556762695e-02
7.421918213367462158e-02
-7.871139049530029297e-02
-3.813452124595642090e-01
-7.023404538631439209e-02
-4.399149119853973389e-02
-8.745932951569557190e-03
-1.224249228835105896e-02
-6.347239017486572266e-02
1.396800428628921509e-01
-2.204062044620513916e-01
-8.518377691507339478e-02
5.718707293272018433e-02
1.310576200485229492e-01
-5.761818960309028625e-03
-7.694257050752639771e-02
1.500114202499389648e-01
-4.526454210281372070e-02
-2.875532805919647217e-01
-6.796406209468841553e-02
1.571395844221115112e-01
2.319396287202835083e-01
1.476705670356750488e-01
4.802235588431358337e-02
2.090006694197654724e-02
-6.371475756168365479e-02
7.163021713495254517e-02
-1.978829205036163330e-01
3.083789721131324768e-02
1.036181524395942688e-01
4.888844490051269531e-02
7.976784370839595795e-03
2.078994736075401306e-02
-1.563973873853683472e-01
1.773800142109394073e-02
1.775605827569961548e-01
-1.062429472804069519e-01
-7.681958843022584915e-03
1.070722788572311401e-01
-1.144503280520439148e-01
4.061694256961345673e-03
-1.247989162802696228e-01
3.327956199645996094e-01
1.218114271759986877e-01
-1.051074787974357605e-01
-1.406618058681488037e-01
1.331113725900650024e-01
-1.126016154885292053e-01
-8.434040099382400513e-02
1.667117886245250702e-02
-1.395785808563232422e-01
-1.268171817064285278e-01
-3.480432927608489990e-01
-6.521747261285781860e-02
3.135752081871032715e-01
8.139584213495254517e-02
-1.266308575868606567e-01
1.949315145611763000e-02
-2.015828900039196014e-02
2.725847810506820679e-02
1.137203052639961243e-01
1.998959183692932129e-01
-1.245723664760589600e-02
7.808992266654968262e-02
-9.520309418439865112e-02
2.961635589599609375e-03
2.139799594879150391e-01
-8.937338739633560181e-02
-4.733098670840263367e-03
1.922566741704940796e-01
-3.155591338872909546e-02
2.977576106786727905e-02
-2.878595888614654541e-02
-3.659826517105102539e-02
-7.242736965417861938e-02
4.040655866265296936e-02
-1.727029234170913696e-01
-3.422095440328121185e-03
4.140105098485946655e-02
-3.515477851033210754e-02
-2.028158307075500488e-02
1.500309109687805176e-01
-1.693864017724990845e-01
-2.836852520704269409e-02
-2.090701833367347717e-02
6.768050603568553925e-03
-7.973141036927700043e-04
-1.441516727209091187e-02
-6.073813512921333313e-02
-1.170769333839416504e-01
8.913283795118331909e-02
-1.954135447740554810e-01
2.047365754842758179e-01
2.086567878723144531e-01
2.555812522768974304e-02
1.272500306367874146e-01
9.615920484066009521e-02
7.174572348594665527e-02
1.360545121133327484e-02
-6.514398008584976196e-02
-1.530413478612899780e-01
7.351891137659549713e-03
1.488128900527954102e-01
-6.608335673809051514e-02
9.990814328193664551e-02
1.778083667159080505e-02
