-1.084122806787490845e-01
2.628978714346885681e-02
9.792096912860870361e-02
-6.394866853952407837e-02
-5.590590834617614746e-02
-5.074108392000198364e-02
5.504141561686992645e-03
-1.410434544086456299e-01
1.874720752239227295e-01
-1.253656595945358276e-01
2.249700278043746948e-01
-1.643304713070392609e-02
-1.564368158578872681e-01
-1.277277320623397827e-01
1.328702829778194427e-02
1.639982312917709351e-01
-1.671654582023620605e-01
-1.503918915987014771e-01
-4.926790669560432434e-02
-9.997934848070144653e-02
5.363703891634941101e-02
-3.546346351504325867e-02
8.389645814895629883e-02
-1.596036553382873535e-02
-9.961687028408050537e-02
-3.573469519615173340e-01
-1.225057914853096008e-01
-1.037833392620086670e-01
4.002998396754264832e-02
-4.701254144310951233e-02
-5.456041917204856873e-02
5.898379161953926086e-02
-1.924137473106384277e-01
-9.641898423433303833e-02
-3.104706853628158569e-02
9.295504540205001831e-02
-2.954615512862801552e-03
-4.887384548783302307e-02
1.717177331447601318e-01
1.271908823400735855e-02
-1.682452857494354248e-01
-6.896272767335176468e-03
3.893415443599224091e-03
2.462046295404434204e-01
1.264795809984207153e-01
5.355853959918022156e-02
5.765451490879058838e-02
-6.951865553855895996e-02
7.314552366733551025e-02
-1.228001490235328674e-01
5.037852376699447632e-02
1.365788429975509644e-01
8.681061863899230957e-02
2.366098761558532715e-02
1.134170033037662506e-02
-8.243390917778015137e-02
3.170178830623626709e-02
6.083715334534645081e-02
-1.183156892657279968e-01
2.090073004364967346e-02
1.286819428205490112e-01
-4.361893236637115479e-02
-8.440154790878295898e-02
-5.785857513546943665e-02
2.512057125568389893e-01
8.658754080533981323e-02
-9.589082747697830200e-02
-1.547471135854721069e-01
1.068985909223556519e-01
-5.139615386724472046e-02
-6.313603371381759644e-02
1.612253114581108093e-02
-2.352589070796966553e-01
-1.368297785520553589e-01
-2.456681877374649048e-01
4.382036626338958740e-02
4.051005542278289795e-01
2.476610243320465088e-02
-1.548294723033905029e-01
2.181438729166984558e-02
-1.507789194583892822e-01
3.318998217582702637e-02
1.176090240478515625e-01
1.273298561573028564e-01
7.473453879356384277e-04
6.780958175659179688e-02
-8.919072896242141724e-02
2.902911789715290070e-02
1.229521334171295166e-01
-9.627176076173782349e-02
-5.633875355124473572e-02
1.700942218303680420e-01
-4.101898521184921265e-04
7.759428769350051880e-02
-3.037238121032714844e-02
1.623057387769222260e-02
-4.395392909646034241e-02
1.101426631212234497e-01
-1.092702746391296387e-01
-1.333581842482089996e-02
1.056427657604217529e-01
8.946455083787441254e-03
8.149245753884315491e-03
8.723723888397216797e-02
-1.443152129650115967e-01
9.272306412458419800e-02
1.387840509414672852e-02
5.656179785728454590e-02
6.682481616735458374e-02
1.706702075898647308e-02
-1.042648255825042725e-01
-1.540535986423492432e-01
8.743946254253387451e-02
-2.315255403518676758e-01
1.221896857023239136e-01
2.745139598846435547e-01
-1.769908145070075989e-02
9.930413961410522461e-02
7.705962657928466797e-02
1.150997057557106018e-01
1.619426161050796509e-02
4.845161363482475281e-02
-2.134665399789810181e-01
2.495324984192848206e-02
7.687796652317047119e-02
3.522458299994468689e-02
-9.781886823475360870e-03
3.724909201264381409e-02
